<svg width="151" height="44" viewBox="0 0 151 44" fill="none" xmlns="http://www.w3.org/2000/svg">
    <path d="M18.2483 25.4585C21.4193 28.6154 24.9545 30.5511 28.879 30.8004C33.008 31.0637 36.8401 29.9712 40.3725 27.8507C42.6863 26.4641 44.79 24.7273 46.496 22.3911C46.6697 22.2174 46.8405 22.0466 47.0142 21.8729C46.059 26.9291 44.0785 31.2374 41.1512 34.809C36.5544 40.417 30.7755 43.1847 23.9264 43.067C20.2148 43.0026 16.7665 41.2882 13.7019 38.3833C8.74376 33.6829 6.09099 27.5454 5.22821 20.3714C5.11336 19.405 5.18059 18.4498 5.37107 17.531C5.95933 14.6933 8.40761 13.5784 10.6626 15.1303C11.8895 15.9763 12.8336 17.2032 13.6599 18.5674C14.0129 19.1501 14.3406 19.7523 14.6516 20.3658C15.5031 22.0438 16.4584 23.6152 17.7441 24.873L18.2483 25.4585Z" fill="#FB81AA"/>
    <path d="M3.87161 0.53398C6.75408 -0.177533 9.77381 2.10827 10.6758 5.68545C11.5834 9.28223 9.96149 12.8006 7.07902 13.4897C4.21896 14.1732 1.13481 11.837 0.249618 8.313C-0.652379 4.72463 0.966734 1.2511 3.87161 0.53398Z" fill="#FB81AA"/>
    <path d="M47.1641 8.72461C47.1666 8.7322 47.1666 8.73726 47.1691 8.74484C47.1717 8.74231 47.1742 8.73726 47.1742 8.73473L47.1641 8.72461Z" fill="#A0C6EA"/>
    <path d="M47.1683 8.74693C47.0115 9.04946 46.849 9.34919 46.7005 9.66013C45.8462 11.4473 44.7901 13.0216 43.4399 14.2794C39.9496 17.5316 35.7309 17.2039 31.9969 13.4054C30.7811 12.1672 29.7475 10.733 28.8007 9.20353C28.2572 8.32674 27.711 7.44716 26.9911 6.75525C25.5176 5.34063 24.0974 5.64596 23.3747 7.53679C22.9125 8.74693 22.8929 10.0831 22.9881 11.4445C23.159 13.8228 23.7724 16.159 24.0778 18.5232C24.3859 20.9099 24.5008 23.2377 22.8901 24.8848C21.5006 25.8905 19.9964 26.0445 18.3605 25.2014C18.2764 25.1594 18.1308 25.1369 18.0859 25.2742C18.1224 25.347 18.2008 25.4143 18.2484 25.4619C21.4194 28.6189 24.9546 30.5545 28.8791 30.8038C33.0081 31.0672 36.8402 29.9747 40.3725 27.8541C42.6864 26.4675 44.7901 24.7308 46.496 22.3945C46.6697 22.2209 46.8406 22.05 47.0143 21.8763C47.5773 19.3832 47.7818 16.7977 47.7202 14.1505C47.681 12.3465 47.6389 10.5397 47.1683 8.74693Z" fill="#A0C6EA"/>
    <path d="M38.4997 14.2228C41.609 13.4301 43.3486 9.64003 42.3794 5.77433C41.4045 1.89182 38.0234 -0.6517 34.8945 0.146652C31.7991 0.936599 30.0567 4.74628 31.026 8.60918C32.0064 12.5141 35.3511 15.0268 38.4997 14.2228Z" fill="#A0C6EA"/>
    <path d="M67.5611 40.64C65.9 40.64 64.5134 40.4187 63.4349 39.9789C62.3452 39.5363 61.4656 38.9313 60.8242 38.1805C60.1827 37.4326 59.7373 36.567 59.4936 35.6118C59.2583 34.6846 59.1406 33.7266 59.1406 32.7658V17.6727C59.1406 17.2469 59.2947 16.8772 59.5972 16.5718C59.8998 16.2693 60.2695 16.1152 60.6981 16.1152C61.1239 16.1152 61.4937 16.2693 61.799 16.5718C62.1043 16.8772 62.2584 17.2469 62.2584 17.6727V32.7658C62.2584 33.4156 62.3284 34.0459 62.4685 34.637C62.6001 35.2 62.8607 35.7127 63.2388 36.1637C63.617 36.6119 64.1492 36.976 64.8243 37.2449C65.5134 37.5195 66.435 37.6595 67.5611 37.6595C68.6676 37.6595 69.5752 37.5195 70.2643 37.2449C70.9394 36.976 71.4717 36.6119 71.8498 36.1637C72.228 35.7155 72.4885 35.2 72.6202 34.637C72.7602 34.0431 72.8302 33.4128 72.8302 32.7658V17.6727C72.8302 17.2469 72.9843 16.8772 73.2869 16.5718C73.5894 16.2693 73.9619 16.1152 74.3877 16.1152C74.8135 16.1152 75.1833 16.2693 75.4886 16.5718C75.794 16.8772 75.948 17.2469 75.948 17.6727V32.7658C75.948 33.7266 75.8304 34.6846 75.5951 35.6118C75.3542 36.5642 74.9116 37.427 74.2841 38.1777C73.651 38.9313 72.7798 39.5363 71.6873 39.9817C70.6089 40.4159 69.2223 40.64 67.5611 40.64Z" fill="#FB81AA"/>
    <path d="M67.5607 40.2429C65.9444 40.2429 64.6194 40.0328 63.5829 39.6126C62.5465 39.1925 61.7285 38.6294 61.1235 37.9235C60.5212 37.2176 60.1038 36.4164 59.8769 35.5172C59.65 34.618 59.5352 33.702 59.5352 32.7692V17.6762C59.5352 17.3568 59.65 17.0851 59.8769 16.8554C60.1038 16.6285 60.3783 16.5137 60.6977 16.5137C61.017 16.5137 61.2887 16.6285 61.5184 16.8554C61.7453 17.0823 61.8602 17.3568 61.8602 17.6762V32.7692C61.8602 33.4527 61.933 34.1054 62.0815 34.7329C62.2299 35.3604 62.5129 35.9234 62.9359 36.422C63.356 36.9235 63.9359 37.3212 64.6782 37.6182C65.4177 37.9151 66.3786 38.0608 67.5635 38.0608C68.7232 38.0608 69.6756 37.9123 70.4151 37.6182C71.1547 37.3212 71.7345 36.9235 72.1575 36.422C72.5777 35.9206 72.8634 35.3576 73.0119 34.7329C73.1604 34.1082 73.2332 33.4527 73.2332 32.7692V17.6762C73.2332 17.3568 73.348 17.0851 73.5749 16.8554C73.8018 16.6285 74.0764 16.5137 74.3957 16.5137C74.715 16.5137 74.9868 16.6285 75.2165 16.8554C75.4434 17.0823 75.5582 17.3568 75.5582 17.6762V32.7692C75.5582 33.702 75.4434 34.618 75.2165 35.5172C74.9896 36.4164 74.5778 37.2204 73.9867 37.9235C73.3957 38.6294 72.5805 39.1925 71.544 39.6126C70.502 40.0328 69.177 40.2429 67.5607 40.2429Z" fill="#FB81AA"/>
    <path d="M85.3135 40.5699C84.5796 40.5699 83.8821 40.4915 83.2406 40.3374C82.5991 40.1833 82.0136 39.9789 81.5038 39.7267C80.9912 39.4774 80.529 39.1917 80.134 38.878C79.739 38.567 79.4141 38.2589 79.1704 37.9676L79.1508 37.9424C78.9435 37.6482 78.8398 37.3541 78.8398 37.0656C78.8398 36.6846 78.9771 36.3541 79.246 36.0851C79.5121 35.819 79.8511 35.679 80.2265 35.679C80.3861 35.679 80.5514 35.7098 80.7195 35.7714C80.9016 35.8386 81.078 35.9591 81.2573 36.1356C81.7419 36.6202 82.319 37.0067 82.9745 37.2785C83.6271 37.553 84.4143 37.6931 85.3135 37.6931C86.2239 37.6931 87.0194 37.525 87.6777 37.1888C88.2632 36.8919 88.5349 36.4073 88.5349 35.665C88.5349 35.2 88.3668 34.8442 88.0251 34.5809C87.6133 34.2643 87.0895 33.9786 86.4648 33.7293C85.8121 33.4716 85.0894 33.2167 84.3219 32.9702C83.5151 32.7125 82.7588 32.3847 82.0781 31.9981C81.375 31.5976 80.7783 31.0821 80.3021 30.4603C79.8063 29.8104 79.5542 28.9672 79.5542 27.9476C79.5542 27.18 79.7082 26.4993 80.008 25.9195C80.3077 25.3424 80.7223 24.8606 81.2349 24.4852C81.7391 24.1155 82.3442 23.841 83.0277 23.6701C83.6944 23.5048 84.4171 23.418 85.1734 23.418C86.3808 23.418 87.4676 23.6169 88.4005 24.0118C89.3501 24.4124 90.1176 25.0035 90.6807 25.7626C90.7423 25.855 90.7983 25.9503 90.8627 26.0623C90.9524 26.2248 90.9972 26.4209 90.9972 26.6478C90.9972 27.0232 90.8571 27.3621 90.591 27.6282C90.3221 27.8971 89.9916 28.0344 89.6106 28.0344C89.4817 28.0344 89.3417 28.012 89.182 27.97C88.9887 27.9167 88.801 27.7991 88.6133 27.6114C88.196 27.194 87.7198 26.8663 87.1987 26.6366C86.6833 26.4097 86.0026 26.2948 85.1734 26.2948C84.8121 26.2948 84.4591 26.3284 84.1202 26.3901C83.8008 26.4489 83.5151 26.5497 83.2686 26.687C83.0389 26.8159 82.8624 26.9783 82.7252 27.1884C82.5991 27.3845 82.5347 27.6366 82.5347 27.9448C82.5347 28.4154 82.7055 28.7851 83.0557 29.0709C83.4675 29.407 83.9885 29.7039 84.6076 29.9476C85.2547 30.2054 85.9774 30.4603 86.7505 30.7068C87.5601 30.9645 88.3136 31.2922 88.9943 31.6788C89.6974 32.0794 90.2941 32.5892 90.7675 33.1971C91.2661 33.8358 91.5182 34.6649 91.5182 35.6594C91.5182 36.4941 91.353 37.2336 91.0308 37.8555C90.7059 38.4802 90.2493 38.9984 89.675 39.399C89.1148 39.7884 88.4509 40.0825 87.7029 40.2758C86.9662 40.4747 86.1623 40.5699 85.3135 40.5699Z" fill="#FB81AA"/>
    <path d="M85.1819 25.9022C84.7953 25.9022 84.42 25.9358 84.0558 26.0059C83.6917 26.0731 83.3667 26.1879 83.0838 26.3476C82.7981 26.5073 82.5712 26.7174 82.4003 26.9779C82.2294 27.2384 82.1454 27.5633 82.1454 27.9499C82.1454 28.541 82.3667 29.02 82.8121 29.3842C83.2547 29.7483 83.8065 30.062 84.4676 30.3226C85.1287 30.5831 85.8514 30.8408 86.6357 31.0901C87.4201 31.3422 88.1428 31.6531 88.8039 32.0285C89.465 32.4039 90.0168 32.8773 90.4594 33.4459C90.902 34.0146 91.1261 34.7541 91.1261 35.6645C91.1261 36.4377 90.9777 37.1099 90.6835 37.6786C90.3866 38.2472 89.9776 38.7151 89.4538 39.0792C88.93 39.4434 88.3165 39.7179 87.6106 39.8972C86.9047 40.0793 86.1427 40.1717 85.322 40.1717C84.6161 40.1717 83.955 40.0989 83.3415 39.9504C82.728 39.8019 82.1734 39.6086 81.686 39.3705C81.1958 39.1324 80.7644 38.8635 80.389 38.5666C80.0136 38.2725 79.7111 37.9867 79.4842 37.7122C79.3245 37.4853 79.2461 37.2696 79.2461 37.0623C79.2461 36.7878 79.3413 36.5553 79.5374 36.362C79.7307 36.1687 79.9632 36.0707 80.2377 36.0707C80.3526 36.0707 80.4702 36.0931 80.5963 36.1379C80.7223 36.1827 80.8512 36.2752 80.9885 36.4096C81.5123 36.9335 82.1258 37.3425 82.8317 37.6394C83.5376 37.9363 84.3667 38.082 85.3248 38.082C86.3024 38.082 87.1512 37.8999 87.8683 37.5357C88.5854 37.1716 88.944 36.5441 88.944 35.6589C88.944 35.0679 88.7227 34.6 88.2773 34.2583C87.8319 33.9165 87.28 33.6168 86.6217 33.3535C85.9607 33.093 85.2379 32.8353 84.4536 32.586C83.6692 32.3366 82.9465 32.0229 82.2854 31.6475C81.6243 31.2722 81.0725 30.7932 80.6299 30.2133C80.1873 29.6335 79.9632 28.8771 79.9632 27.9415C79.9632 27.2356 80.1005 26.6221 80.3722 26.0983C80.6467 25.5745 81.0137 25.1431 81.4815 24.8013C81.9465 24.4596 82.5011 24.2103 83.137 24.0506C83.7729 23.8909 84.4564 23.8125 85.1847 23.8125C86.3444 23.8125 87.3697 24.0002 88.2577 24.3755C89.1457 24.7509 89.8516 25.2915 90.3754 25.9975C90.4202 26.0647 90.4706 26.1515 90.5295 26.2524C90.5855 26.356 90.6163 26.4849 90.6163 26.6445C90.6163 26.9191 90.5183 27.1516 90.325 27.3449C90.1317 27.5381 89.8992 27.6362 89.6247 27.6362C89.5322 27.6362 89.4258 27.6194 89.2997 27.5858C89.1737 27.5521 89.0448 27.4653 88.9075 27.3308C88.4509 26.877 87.9411 26.5241 87.3725 26.272C86.7954 26.0255 86.0671 25.9022 85.1819 25.9022Z" fill="#FB81AA"/>
    <path d="M106.724 40.4358C106.299 40.4358 105.94 40.293 105.657 40.0128C105.377 39.7327 105.234 39.3741 105.234 38.9456V30.2729C105.234 29.6203 105.178 29.0208 105.072 28.4914C104.971 27.9955 104.783 27.5697 104.514 27.2196C104.254 26.8806 103.884 26.6117 103.416 26.424C102.932 26.228 102.298 26.1299 101.534 26.1299C100.747 26.1299 100.08 26.242 99.5504 26.4577C99.035 26.6706 98.6176 26.9703 98.3067 27.3485C97.9901 27.735 97.7576 28.1972 97.6148 28.7211C97.4663 29.2645 97.3907 29.8668 97.3907 30.511V38.9456C97.3907 39.3713 97.2478 39.7299 96.9677 40.0128C96.6876 40.293 96.329 40.4358 95.9004 40.4358C95.4746 40.4358 95.1161 40.293 94.8331 40.0128C94.553 39.7327 94.4102 39.3741 94.4102 38.9456V16.5469C94.4102 16.1211 94.553 15.7626 94.8331 15.4796C95.1133 15.1995 95.4718 15.0566 95.9004 15.0566C96.329 15.0566 96.6848 15.1995 96.9677 15.4796C97.2478 15.7598 97.3907 16.1183 97.3907 16.5469V24.959C97.6904 24.6593 98.049 24.3875 98.4663 24.1438C99.3207 23.6424 100.354 23.3903 101.536 23.3903C102.903 23.3903 104.038 23.578 104.904 23.9506C105.78 24.3287 106.475 24.8385 106.971 25.4688C107.461 26.0935 107.797 26.8022 107.968 27.5726C108.133 28.3177 108.217 29.074 108.217 29.8275V38.9428C108.217 39.3685 108.075 39.7271 107.794 40.01C107.509 40.293 107.15 40.4358 106.724 40.4358Z" fill="#FB81AA"/>
    <path d="M101.535 23.7859C102.855 23.7859 103.925 23.9624 104.746 24.3154C105.566 24.6683 106.202 25.1361 106.659 25.716C107.113 26.2959 107.421 26.9457 107.581 27.6629C107.74 28.38 107.819 29.1027 107.819 29.831V38.9462C107.819 39.2656 107.715 39.5261 107.51 39.7306C107.306 39.9351 107.043 40.0387 106.726 40.0387C106.407 40.0387 106.146 39.9351 105.942 39.7306C105.737 39.5261 105.634 39.2656 105.634 38.9462V30.2736C105.634 29.5901 105.578 28.971 105.463 28.4136C105.348 27.8561 105.138 27.3771 104.833 26.9794C104.524 26.5816 104.104 26.2734 103.569 26.0577C103.034 25.8421 102.356 25.7328 101.538 25.7328C100.695 25.7328 99.9836 25.8533 99.4037 26.0914C98.8239 26.3295 98.3561 26.6656 98.0031 27.0998C97.6501 27.5312 97.3952 28.0382 97.2356 28.6181C97.0759 29.1979 96.9975 29.831 96.9975 30.5117V38.9462C96.9975 39.2656 96.8938 39.5261 96.6893 39.7306C96.4848 39.9351 96.2215 40.0387 95.905 40.0387C95.5856 40.0387 95.3251 39.9351 95.1206 39.7306C94.9161 39.5261 94.8125 39.2656 94.8125 38.9462V16.5476C94.8125 16.2282 94.9161 15.9677 95.1206 15.7632C95.3251 15.5587 95.5856 15.4551 95.905 15.4551C96.2243 15.4551 96.4848 15.5587 96.6893 15.7632C96.8938 15.9677 96.9975 16.231 96.9975 16.5476V26.1754C97.3168 25.5143 97.8742 24.9513 98.6698 24.4863C99.4653 24.0184 100.421 23.7859 101.535 23.7859Z" fill="#FB81AA"/>
    <path d="M116.764 40.6073C114.859 40.6073 113.324 40.1535 112.198 39.2571C111.044 38.3411 110.461 37.0189 110.461 35.3269C110.461 33.705 111.052 32.4109 112.215 31.4836C113.352 30.576 114.904 30.1166 116.834 30.1166H121.251V29.5928C121.251 28.5367 120.94 27.7328 120.302 27.1333C119.663 26.5367 118.761 26.2341 117.621 26.2341C116.772 26.2341 116.066 26.3658 115.52 26.6235C114.968 26.884 114.441 27.293 113.957 27.842C113.73 28.0689 113.551 28.2146 113.388 28.3042C113.203 28.4051 112.996 28.4555 112.772 28.4555C112.397 28.4555 112.058 28.3155 111.792 28.0493C111.525 27.7832 111.385 27.4443 111.385 27.0689C111.385 26.7888 111.464 26.5227 111.618 26.279C112.13 25.4722 112.89 24.7859 113.876 24.2313C114.864 23.6766 116.125 23.3965 117.621 23.3965C119.725 23.3965 121.358 23.9707 122.478 25.1024C123.596 26.2341 124.165 27.7468 124.165 29.5984V38.9881C124.165 39.3915 124.022 39.7389 123.742 40.019C123.461 40.2991 123.114 40.442 122.711 40.442C122.307 40.442 121.96 40.2991 121.68 40.019C121.4 39.7389 121.257 39.3915 121.257 38.9881V38.9517C120.862 39.3523 120.383 39.6829 119.825 39.9434C118.867 40.3804 117.842 40.6073 116.764 40.6073ZM116.834 32.8198C115.803 32.8198 114.965 33.0327 114.341 33.4529C113.758 33.8451 113.475 34.4558 113.475 35.3269C113.475 36.0973 113.736 36.6911 114.271 37.1393C114.82 37.5987 115.727 37.8312 116.968 37.8312C117.517 37.8312 118.063 37.7444 118.587 37.5763C119.106 37.4111 119.565 37.1589 119.954 36.8312C120.341 36.5063 120.657 36.0917 120.893 35.5987C121.128 35.1084 121.246 34.523 121.246 33.8591V32.8226H116.834V32.8198Z" fill="#FB81AA"/>
    <path d="M117.618 25.8337C116.707 25.8337 115.951 25.9766 115.346 26.2595C114.744 26.5452 114.178 26.9822 113.657 27.5733C113.475 27.7554 113.321 27.8814 113.194 27.9486C113.068 28.0159 112.926 28.0523 112.769 28.0523C112.494 28.0523 112.262 27.957 112.068 27.761C111.875 27.5677 111.777 27.3352 111.777 27.0606C111.777 26.8562 111.833 26.6629 111.948 26.4808C112.427 25.7301 113.13 25.0914 114.066 24.5675C114.998 24.0437 116.183 23.7832 117.618 23.7832C119.621 23.7832 121.144 24.3126 122.192 25.3715C123.24 26.4304 123.764 27.8366 123.764 29.5874V38.9771C123.764 39.274 123.66 39.5233 123.455 39.7278C123.251 39.9323 122.999 40.036 122.705 40.036C122.408 40.036 122.158 39.9323 121.954 39.7278C121.749 39.5233 121.646 39.274 121.646 38.9771V37.7474C121.214 38.5457 120.548 39.1536 119.649 39.5738C118.749 39.9939 117.789 40.204 116.763 40.204C114.942 40.204 113.503 39.7838 112.444 38.9407C111.385 38.1003 110.855 36.893 110.855 35.3215C110.855 33.82 111.391 32.6407 112.461 31.7863C113.531 30.9319 114.987 30.5062 116.83 30.5062H121.646V29.5846C121.646 28.4248 121.287 27.5088 120.57 26.8365C119.853 26.1699 118.87 25.8337 117.618 25.8337ZM116.968 38.2292C117.559 38.2292 118.139 38.1395 118.71 37.9574C119.279 37.7754 119.78 37.5008 120.212 37.1367C120.643 36.7725 120.99 36.3187 121.254 35.7697C121.514 35.2234 121.646 34.5876 121.646 33.8564V32.4222H116.83C115.716 32.4222 114.811 32.6547 114.116 33.1225C113.421 33.5903 113.074 34.3242 113.074 35.3243C113.074 36.2123 113.388 36.9182 114.012 37.442C114.64 37.9686 115.626 38.2292 116.968 38.2292Z" fill="#FB81AA"/>
    <path d="M128.951 40.4362C128.525 40.4362 128.167 40.2933 127.884 40.0132C127.604 39.733 127.461 39.3745 127.461 38.9459V25.0826C127.461 24.6568 127.604 24.2982 127.884 24.0153C128.164 23.7352 128.523 23.5923 128.951 23.5923C129.38 23.5923 129.736 23.7352 130.018 24.0153C130.299 24.2954 130.441 24.654 130.441 25.0826V25.2311C130.758 24.8753 131.136 24.5588 131.576 24.2842C132.456 23.7352 133.537 23.4551 134.792 23.4551C135.195 23.4551 135.542 23.5979 135.823 23.8781C136.103 24.1582 136.246 24.5055 136.246 24.9089C136.246 25.3123 136.103 25.6597 135.823 25.9398C135.542 26.2199 135.195 26.3628 134.792 26.3628C133.335 26.3628 132.273 26.7998 131.551 27.6989C130.817 28.6122 130.444 29.8195 130.444 31.2901V38.9375C130.444 39.3633 130.301 39.7218 130.021 40.0048C129.736 40.2933 129.377 40.4362 128.951 40.4362Z" fill="#FB81AA"/>
    <path d="M130.044 26.5847C130.386 25.7892 130.966 25.1337 131.787 24.6211C132.607 24.1084 133.608 23.8535 134.792 23.8535C135.089 23.8535 135.339 23.9572 135.543 24.1616C135.748 24.3661 135.851 24.6183 135.851 24.9124C135.851 25.2093 135.748 25.4586 135.543 25.6631C135.339 25.8676 135.087 25.9712 134.792 25.9712C133.221 25.9712 132.039 26.4671 131.24 27.4559C130.442 28.4475 130.044 29.7277 130.044 31.2964V38.9438C130.044 39.2631 129.941 39.5236 129.736 39.7281C129.532 39.9326 129.268 40.0362 128.952 40.0362C128.633 40.0362 128.372 39.9326 128.168 39.7281C127.963 39.5236 127.859 39.2631 127.859 38.9438V25.0805C127.859 24.7611 127.963 24.5006 128.168 24.2961C128.372 24.0916 128.633 23.988 128.952 23.988C129.271 23.988 129.532 24.0916 129.736 24.2961C129.941 24.5006 130.044 24.7639 130.044 25.0805V26.5847Z" fill="#FB81AA"/>
    <path d="M144.418 40.607C142.043 40.607 140.135 39.9067 138.743 38.5285C137.35 37.1503 136.645 34.9457 136.645 31.982C136.645 29.2564 137.297 27.1219 138.586 25.6428C139.888 24.147 141.734 23.3906 144.076 23.3906C145.505 23.3906 146.69 23.6483 147.6 24.1582C148.502 24.6624 149.214 25.2899 149.715 26.021C150.208 26.7437 150.55 27.5252 150.732 28.3432C150.908 29.1416 150.998 29.8475 150.998 30.4441C150.998 30.699 150.992 30.9624 150.981 31.2285C150.967 31.5394 150.906 31.8223 150.794 32.0716C150.673 32.3406 150.494 32.5647 150.259 32.7411C150.006 32.9288 149.662 33.0241 149.236 33.0241H139.673C139.737 34.4387 140.16 35.5788 140.925 36.422C141.765 37.3464 142.908 37.7946 144.421 37.7946C145.356 37.7946 146.118 37.6545 146.687 37.3744C147.286 37.0802 147.821 36.7553 148.278 36.408L148.295 36.3939L148.314 36.3827C148.446 36.3043 148.555 36.2455 148.653 36.2035C148.782 36.1474 148.939 36.1194 149.132 36.1194C149.513 36.1194 149.844 36.2567 150.113 36.5256C150.382 36.7945 150.519 37.1251 150.519 37.506C150.519 37.7609 150.466 37.9794 150.359 38.1559C150.275 38.296 150.163 38.436 150.026 38.5733C149.875 38.7246 149.656 38.9095 149.354 39.1392C149.048 39.3717 148.656 39.5986 148.188 39.8142C147.726 40.0271 147.174 40.2148 146.547 40.3689C145.914 40.5286 145.197 40.607 144.418 40.607ZM148.04 30.3209C148.018 29.8727 147.962 29.4245 147.869 28.9903C147.757 28.4553 147.547 27.9706 147.25 27.5505C146.959 27.1387 146.558 26.8025 146.062 26.5476C145.564 26.2927 144.894 26.1638 144.073 26.1638C142.676 26.1638 141.645 26.556 140.919 27.3628C140.261 28.0967 139.849 29.0911 139.695 30.3209H148.04Z" fill="#FB81AA"/>
    <path d="M137.043 31.9796C137.043 29.338 137.656 27.3128 138.886 25.9009C140.116 24.4891 141.844 23.7832 144.077 23.7832C145.444 23.7832 146.553 24.0213 147.405 24.5003C148.259 24.9793 148.917 25.5592 149.385 26.2427C149.85 26.9262 150.17 27.6545 150.34 28.4276C150.511 29.2008 150.595 29.8731 150.595 30.4417C150.595 30.691 150.59 30.9488 150.579 31.2093C150.567 31.4698 150.517 31.7051 150.424 31.9096C150.332 32.1141 150.198 32.2849 150.015 32.4222C149.833 32.5595 149.573 32.6267 149.231 32.6267H139.262C139.262 34.3326 139.715 35.6884 140.629 36.6885C141.539 37.6913 142.802 38.1899 144.419 38.1899C145.419 38.1899 146.234 38.0359 146.861 37.7277C147.486 37.4196 148.041 37.0835 148.517 36.7193C148.632 36.6521 148.727 36.5988 148.808 36.5652C148.887 36.5316 148.996 36.5148 149.133 36.5148C149.408 36.5148 149.64 36.6128 149.833 36.8061C150.027 36.9994 150.125 37.2319 150.125 37.5064C150.125 37.6885 150.091 37.837 150.021 37.949C149.954 38.0639 149.861 38.1759 149.747 38.2908C149.609 38.4281 149.399 38.6045 149.116 38.8202C148.831 39.0359 148.466 39.246 148.024 39.4505C147.581 39.655 147.057 39.8315 146.452 39.9799C145.85 40.1284 145.172 40.2012 144.421 40.2012C142.144 40.2012 140.346 39.5485 139.026 38.2376C137.704 36.9378 137.043 34.8481 137.043 31.9796ZM148.447 30.7163C148.447 30.1028 148.385 29.4977 148.259 28.9067C148.133 28.3156 147.906 27.7862 147.576 27.3184C147.245 26.8506 146.802 26.4752 146.245 26.1923C145.688 25.9093 144.965 25.7665 144.077 25.7665C142.575 25.7665 141.424 26.2091 140.629 27.0971C139.83 27.985 139.376 29.1924 139.262 30.7163H148.447Z" fill="#FB81AA"/>
</svg>
