<svg width="21" height="16" viewBox="0 0 21 16" fill="none" xmlns="http://www.w3.org/2000/svg">
    <g clipPath="url(#clip0_4449_1943)">
        <path d="M4.98955 14.6793C4.88225 15.3071 4.57681 15.7278 3.97501 15.8778C3.87338 15.9032 3.76438 15.9049 3.65878 15.9055C2.87984 15.9078 2.10034 15.9084 1.32141 15.9061C0.503866 15.9038 0.000851605 15.3908 0.000851605 14.5552C-0.000283868 11.5597 -0.000283868 8.56423 0.000851605 5.56874C0.000851605 4.72277 0.505002 4.21035 1.33674 4.20804C2.03108 4.20573 2.72542 4.22651 3.41919 4.20227C4.1283 4.17746 4.67219 4.39501 4.93846 5.13941C5.3847 4.76317 5.8088 4.39732 6.24198 4.043C7.6494 2.89351 9.06249 1.75036 10.4688 0.59914C10.7509 0.368318 11.0229 0.129994 11.3896 0.0445897C12.1141 -0.12391 12.847 0.194047 13.2297 0.84785C13.6146 1.50512 13.551 2.33492 13.0384 2.89236C12.5495 3.42325 12.0323 3.92644 11.5282 4.44233C11.4799 4.49138 11.4351 4.54389 11.3562 4.63045C11.4737 4.63045 11.5475 4.63045 11.6219 4.63045C14.1148 4.63045 16.6083 4.63102 19.1012 4.62987C19.8529 4.62929 20.424 4.94552 20.7936 5.61779C21.371 6.66572 20.654 7.84868 19.6525 8.03853C19.4867 8.06969 19.3153 8.0795 19.1461 8.08008C18.19 8.08412 17.2345 8.08181 16.2506 8.08181C16.6162 8.98894 16.4737 9.77662 15.7499 10.4241C16.3466 11.2822 16.3006 12.3116 15.4915 13.0399C15.6057 13.3446 15.7544 13.6285 15.8174 13.9308C16.0405 15.0065 15.2792 15.9777 14.1999 15.9869C12.5075 16.0013 10.814 16.0105 9.12154 15.9823C7.98096 15.9632 6.9437 15.5691 6.02056 14.8888C5.81334 14.7358 5.6135 14.6493 5.36029 14.677C5.24276 14.6897 5.12184 14.6793 4.98955 14.6793ZM4.97706 13.9124C5.25355 13.9124 5.49541 13.9262 5.73442 13.9083C5.95471 13.8922 6.11935 13.9683 6.29024 14.1051C7.11459 14.767 8.0576 15.149 9.10621 15.1669C10.8054 15.1969 12.5052 15.179 14.2051 15.1807C14.2544 15.1807 14.3044 15.1773 14.3532 15.1704C14.6785 15.1265 14.9005 14.9493 15.0073 14.6325C15.2185 14.0036 14.8494 13.4438 14.1971 13.3976C14.1687 13.3959 14.1403 13.3965 14.1125 13.3919C13.9053 13.3572 13.7781 13.2055 13.7724 12.9885C13.7668 12.7612 13.8724 12.6071 14.0836 12.5655C14.2079 12.5407 14.3368 12.543 14.4634 12.5321C14.9306 12.4934 15.227 12.2591 15.2985 11.8713C15.4098 11.2666 15.0555 10.8026 14.4503 10.7605C14.1767 10.7415 14.0313 10.6018 14.0245 10.3519C14.0171 10.0859 14.1562 9.93647 14.4373 9.90704C14.5985 9.8903 14.7637 9.88915 14.921 9.85337C15.3814 9.7495 15.5994 9.42693 15.5602 8.93297C15.5245 8.47825 15.206 8.15221 14.766 8.12682C14.6036 8.11759 14.4401 8.1274 14.2777 8.12105C13.9706 8.10893 13.798 7.87984 13.8655 7.57977C13.9115 7.3755 14.066 7.26932 14.3379 7.26874C15.1594 7.26643 15.9809 7.26816 16.8024 7.26759C17.6098 7.26759 18.4171 7.27336 19.2244 7.26412C19.7677 7.25778 20.1288 6.8296 20.0766 6.27967C20.0317 5.8111 19.6559 5.4868 19.1512 5.4868C16.2478 5.48622 13.3438 5.48564 10.4404 5.48737C10.2247 5.48737 10.047 5.42736 9.95327 5.21558C9.85903 5.00265 9.96122 4.84453 10.1032 4.69623C10.4841 4.29922 10.8617 3.89932 11.2403 3.50057C11.6094 3.11221 11.9807 2.72616 12.3451 2.33377C12.6211 2.03601 12.6716 1.6338 12.4882 1.2968C12.3026 0.954605 11.9534 0.768217 11.5742 0.876126C11.3669 0.934986 11.1733 1.07925 11.0007 1.22005C9.04206 2.82138 7.08961 4.43078 5.13206 6.03327C5.0151 6.12906 4.97422 6.22658 4.97422 6.37719C4.97877 8.80371 4.97763 11.2296 4.97763 13.6562C4.97706 13.7346 4.97706 13.812 4.97706 13.9124ZM4.13738 10.0467C4.13738 8.55615 4.13795 7.06562 4.13681 5.57508C4.13625 5.18846 4.00623 5.05977 3.62301 5.0592C2.87246 5.05804 2.12135 5.05862 1.3708 5.0592C0.962597 5.05977 0.837128 5.18442 0.83656 5.60048C0.835424 8.56019 0.835424 11.5193 0.83656 14.479C0.83656 14.8922 0.959759 15.014 1.37364 15.0151C2.10999 15.0169 2.84692 15.0163 3.58327 15.0151C4.02383 15.0146 4.13681 14.9003 4.13681 14.4542C4.13738 12.9845 4.13738 11.5159 4.13738 10.0467Z" fill="white"/>
    </g>
    <defs>
        <clipPath id="clip0_4449_1943">
            <rect width="21" height="16" fill="white"/>
        </clipPath>
    </defs>
</svg>
