<svg width="20" height="19" viewBox="0 0 20 19" fill="none" xmlns="http://www.w3.org/2000/svg">
    <path d="M19.8157 19C16.5747 16.872 13.4719 18.5818 10.3033 18.794C5.12096 19.1384 0.553934 15.1223 0.0406366 10.0884C-0.446338 5.30048 3.49881 0.84775 8.90159 0.0882034C13.7088 -0.588316 18.8813 2.7051 19.796 7.28084C20.1152 8.87373 20.0428 10.688 19.5426 12.2287C19.0326 13.797 18.9372 15.1623 19.5328 16.6506C19.7598 17.2164 19.8486 17.8284 20 18.4188C19.9375 18.6125 19.875 18.8063 19.8157 19Z" fill="white"/>
    <circle cx="5.5" cy="9.5" r="1.5" fill="#A0C6EA"/>
    <circle cx="10.5" cy="9.5" r="1.5" fill="#A0C6EA"/>
    <circle cx="15.5" cy="9.5" r="1.5" fill="#A0C6EA"/>
</svg>
