<svg width="18" height="17" viewBox="0 0 18 17" fill="none" xmlns="http://www.w3.org/2000/svg">
    <path d="M9 0C4.03594 0 0 3.81172 0 8.5C0 13.1883 4.03594 17 9 17C13.9641 17 18 13.1883 18 8.5C18 3.81172 13.9641 0 9 0Z" fill="#4267B2"/>
    <path d="M9.60092 14.1665V8.99685H11.4383L11.7133 6.98214L9.60092 6.98214V5.69581C9.60092 5.11252 9.77244 4.71497 10.6582 4.71497L11.7878 4.71448V2.91255C11.5923 2.88809 10.9218 2.83325 10.1417 2.83325C8.51308 2.83325 7.39806 3.77211 7.39806 5.49638V6.9822H5.55597L5.55597 8.99691H7.398L7.398 14.1666L9.60092 14.1665Z" fill="white"/>
</svg>
