<svg width="26" height="25" viewBox="0 0 26 25" fill="none" xmlns="http://www.w3.org/2000/svg">
    <circle cx="13" cy="12.5" r="12.5" fill="#FB81AA"/>
    <g clipPath="url(#clip0_4400_5232)">
        <path d="M12.9968 5.83301C10.3342 5.83301 8.16797 7.99921 8.16797 10.6618C8.16797 13.9662 12.4893 18.8172 12.6733 19.0221C12.8461 19.2146 13.1478 19.2142 13.3203 19.0221C13.5043 18.8172 17.8256 13.9662 17.8256 10.6618C17.8256 7.99921 15.6594 5.83301 12.9968 5.83301ZM12.9968 13.0913C11.6572 13.0913 10.5673 12.0014 10.5673 10.6618C10.5673 9.32217 11.6572 8.23233 12.9968 8.23233C14.3364 8.23233 15.4262 9.3222 15.4262 10.6618C15.4262 12.0015 14.3364 13.0913 12.9968 13.0913Z" fill="white"/>
    </g>
    <defs>
        <clipPath id="clip0_4400_5232">
            <rect width="13.3333" height="13.3333" fill="white" transform="translate(6.33203 5.83301)"/>
        </clipPath>
    </defs>
</svg>
