<svg width="33" height="32" viewBox="0 0 33 32" fill="none" xmlns="http://www.w3.org/2000/svg">
<g clipPath="url(#clip0)">
<path d="M15.3667 8.06533L11.3333 0H2L7.73333 11.4667C9.84514 9.5405 12.5223 8.34757 15.3667 8.06533Z" fill="#777777"/>
<path d="M17.9668 8.06533L22.0001 0H31.3335L25.6001 11.4667C23.4883 9.5405 20.8111 8.34757 17.9668 8.06533Z" fill="#777777"/>
<path d="M16.6667 10.6666C14.557 10.6666 12.4947 11.2922 10.7406 12.4643C8.98646 13.6364 7.61929 15.3023 6.81196 17.2513C6.00462 19.2004 5.79339 21.3451 6.20496 23.4143C6.61654 25.4834 7.63244 27.384 9.1242 28.8758C10.616 30.3675 12.5166 31.3834 14.5857 31.795C16.6548 32.2066 18.7995 31.9953 20.7486 31.188C22.6977 30.3807 24.3636 29.0135 25.5357 27.2594C26.7077 25.5052 27.3333 23.443 27.3333 21.3333C27.3333 18.5043 26.2095 15.7912 24.2091 13.7908C22.2088 11.7904 19.4956 10.6666 16.6667 10.6666ZM19.8013 26.1573L16.6667 24.5093L13.532 26.1573L14.1333 22.6666L11.6 20.1946L15.104 19.6853L16.6667 16.5093L18.2347 19.6853L21.7387 20.1946L19.2 22.6666L19.8013 26.1573Z" fill="#777777"/>
</g>
<defs>
<clipPath id="clip0">
<rect width="32" height="32" fill="white" transform="translate(0.25)"/>
</clipPath>
</defs>
</svg>
